%YAML 1.1
%TAG !u! tag:unity3d.com,2011:
--- !u!114 &11400000
MonoBehaviour:
  m_ObjectHideFlags: 0
  m_PrefabParentObject: {fileID: 0}
  m_PrefabInternal: {fileID: 0}
  m_GameObject: {fileID: 0}
  m_Enabled: 1
  m_EditorHideFlags: 0
  m_Script: {fileID: 11500000, guid: 5ed92bedf9cb25146a7a97e127a81552, type: 3}
  m_Name: Missle
  m_EditorClassIdentifier: 
  BaseSprite: {fileID: 21300006, guid: deb6a62e982eda54a870cea44efd7811, type: 3}
  MyAward: 2
