%YAML 1.1
%TAG !u! tag:unity3d.com,2011:
--- !u!114 &11400000
MonoBehaviour:
  m_ObjectHideFlags: 0
  m_PrefabParentObject: {fileID: 0}
  m_PrefabInternal: {fileID: 0}
  m_GameObject: {fileID: 0}
  m_Enabled: 1
  m_EditorHideFlags: 0
  m_Script: {fileID: 11500000, guid: d1df644df72a0d546904cbd51c64f9fc, type: 3}
  m_Name: T7
  m_EditorClassIdentifier: 
  Shape: {fileID: 21300010, guid: 6861e418eef85494cb17fe3350efe069, type: 3}
  Destruction: {fileID: 21300022, guid: 6861e418eef85494cb17fe3350efe069, type: 3}
  Priority: 0
